<svg width="256" height="256" viewBox="0 0 256 256" fill="none" xmlns="http://www.w3.org/2000/svg">
<g clip-path="url(#clip0_101_24)">
<rect width="256" height="256" fill="#1E1E1E"/>
<path d="M128 40L0 0V192.97L128 254L256 192.97V0L128 40Z" fill="#9C84EF" stroke="black"/>
<path d="M146.321 149.738L127.5 193V149.738V140.617V131.495L135.841 111.167L176.411 81L206.5 106.572L188.446 134.651L172.399 117.603L153.844 129.135L189.449 152.2L170.393 176.769L146.321 149.738Z" fill="#1E1E1E"/>
<path d="M109.179 149.545L128 192.685V149.545V140.449V131.353L119.659 111.082L79.0893 81L49 106.5L67.0536 134.5L83.1012 117.5L101.656 129L66.0506 152L85.1071 176.5L109.179 149.545Z" fill="#1E1E1E"/>
</g>
<defs>
<clipPath id="clip0_101_24">
<rect width="256" height="256" fill="white"/>
</clipPath>
</defs>
</svg>
